_projects/tt09_clb/tb.vcd
$date
	Thu Nov 14 03:02:09 2024
$end
$version
	Icarus Verilog
$end
$timescale
	1ps
$end
$scope module tb $end
$var wire 8 ! uio_oe [7:0] $end
$var wire 8 " uio_out [7:0] $end
$var wire 8 # uo_out [7:0] $end
$var reg 1 $ clk $end
$var reg 1 % ena $end
$var reg 1 & rst_n $end
$var reg 8 ' ui_in [7:0] $end
$var reg 8 ( uio_in [7:0] $end
$scope module uut $end
$var wire 1 $ clk $end
$var wire 1 % ena $end
$var wire 1 & rst_n $end
$var wire 8 ) ui_in [7:0] $end
$var wire 8 * uio_in [7:0] $end
$var wire 8 + uio_oe [7:0] $end
$var wire 8 , uio_out [7:0] $end
$var wire 8 - uo_out [7:0] $end
$var wire 1 . comb_out $end
$var wire 1 / _unused $end
$var reg 1 0 comb_out_r $end
$var reg 1 1 is_sync_r $end
$var reg 1 2 out_r $end
$scope module lut $end
$var wire 3 3 args_i [2:0] $end
$var wire 1 $ clk_i $end
$var wire 1 4 new_seed_i $end
$var wire 1 . out_o $end
$var wire 1 & resetn $end
$var wire 8 5 seed_i [7:0] $end
$var reg 8 6 lookup_table_r [7:0] $end
$var reg 1 7 out_r $end
$upscope $end
$upscope $end
$upscope $end
$enddefinitions $end
#0
$dumpvars
07
b0 6
b0 5
04
b0 3
02
01
00
0/
0.
b0 -
b0 ,
b0 +
b0 *
b0 )
b0 (
b0 '
0&
1%
1$
b0 #
b0 "
b0 !
$end
#20000
0$
#40000
1$
#60000
0$
#80000
1$
#100000
0$
#120000
1$
#140000
0$
#160000
1$
#180000
0$
#200000
1$
#220000
0$
#240000
1$
#260000
0$
#280000
1$
#300000
0$
#320000
1$
#340000
0$
#360000
14
b1000 '
b1000 )
b1010101 (
b1010101 *
b1010101 5
1&
1$
#380000
0$
#400000
04
b0 '
b0 )
b1 #
b1 -
12
1.
17
b1010101 6
1$
#420000
0$
#440000
10
1$
#460000
0$
#480000
b0 #
b0 -
02
0.
07
b1 3
b1 '
b1 )
1$
#500000
0$
#520000
b1 #
b1 -
12
1.
17
b10 3
b10 '
b10 )
00
1$
#540000
0$
#560000
b0 #
b0 -
02
0.
07
b11 3
b11 '
b11 )
10
1$
#580000
0$
#600000
b1 #
b1 -
12
1.
17
b100 3
b100 '
b100 )
00
1$
#620000
0$
#640000
b0 #
b0 -
02
0.
07
b101 3
b101 '
b101 )
10
1$
#660000
0$
#680000
b1 #
b1 -
12
1.
17
b110 3
b110 '
b110 )
00
1$
#700000
0$
#720000
b0 #
b0 -
02
0.
07
b111 3
b111 '
b111 )
10
1$
#740000
0$
#760000
00
1$
#780000
0$
#800000
b1 #
b1 -
12
1.
17
14
b0 3
b1000 '
b1000 )
b10001000 (
b10001000 *
b10001000 5
1$
#820000
0$
#840000
04
b0 '
b0 )
b0 #
b0 -
02
0.
07
10
b10001000 6
1$
#860000
0$
#880000
00
1$
#900000
0$
#920000
b1 3
b1 '
b1 )
1$
#940000
0$
#960000
b10 3
b10 '
b10 )
1$
#980000
0$
#1000000
b1 #
b1 -
12
1.
17
b11 3
b11 '
b11 )
1$
#1020000
0$
#1040000
b0 #
b0 -
02
0.
07
b100 3
b100 '
b100 )
10
1$
#1060000
0$
#1080000
b101 3
b101 '
b101 )
00
1$
#1100000
0$
#1120000
b110 3
b110 '
b110 )
1$
#1140000
0$
#1160000
b1 #
b1 -
12
1.
17
b111 3
b111 '
b111 )
1$
#1180000
0$
#1200000
10
1$
#1220000
0$
#1240000
1$
#1260000
0$
#1280000
b0 #
b0 -
02
0.
07
14
b0 3
b1000 '
b1000 )
b11101110 (
b11101110 *
b11101110 5
1$
#1300000
0$
#1320000
04
b0 '
b0 )
00
b11101110 6
1$
#1340000
0$
#1360000
1$
#1380000
0$
#1400000
b1 #
b1 -
12
1.
17
b1 3
b1 '
b1 )
1$
#1420000
0$
#1440000
b10 3
b10 '
b10 )
10
1$
#1460000
0$
#1480000
b11 3
b11 '
b11 )
1$
#1500000
0$
#1520000
b0 #
b0 -
02
0.
07
b100 3
b100 '
b100 )
1$
#1540000
0$
#1560000
b1 #
b1 -
12
1.
17
b101 3
b101 '
b101 )
00
1$
#1580000
0$
#1600000
b110 3
b110 '
b110 )
10
1$
#1620000
0$
#1640000
b111 3
b111 '
b111 )
1$
#1660000
0$
#1680000
1$
#1700000
0$
#1720000
1$
#1740000
0$
#1760000
b0 #
b0 -
02
0.
07
14
b0 3
b1000 '
b1000 )
b1100110 (
b1100110 *
b1100110 5
1$
#1780000
0$
#1800000
04
b0 '
b0 )
00
b1100110 6
1$
#1820000
0$
#1840000
1$
#1860000
0$
#1880000
b1 #
b1 -
12
1.
17
b1 3
b1 '
b1 )
1$
#1900000
0$
#1920000
b10 3
b10 '
b10 )
10
1$
#1940000
0$
#1960000
b0 #
b0 -
02
0.
07
b11 3
b11 '
b11 )
1$
#1980000
0$
#2000000
b100 3
b100 '
b100 )
00
1$
#2020000
0$
#2040000
b1 #
b1 -
12
1.
17
b101 3
b101 '
b101 )
1$
#2060000
0$
#2080000
b110 3
b110 '
b110 )
10
1$
#2100000
0$
#2120000
b0 #
b0 -
02
0.
07
b111 3
b111 '
b111 )
1$
#2140000
0$
#2160000
00
1$
#2180000
0$
#2200000
1$
#2220000
0$
#2240000
14
b0 3
b1000 '
b1000 )
b1110111 (
b1110111 *
b1110111 5
1$
#2260000
0$
#2280000
04
b0 '
b0 )
b1 #
b1 -
12
1.
17
b1110111 6
1$
#2300000
0$
#2320000
10
1$
#2340000
0$
#2360000
b1 3
b1 '
b1 )
1$
#2380000
0$
#2400000
b10 3
b10 '
b10 )
1$
#2420000
0$
#2440000
b0 #
b0 -
02
0.
07
b11 3
b11 '
b11 )
1$
#2460000
0$
#2480000
b1 #
b1 -
12
1.
17
b100 3
b100 '
b100 )
00
1$
#2500000
0$
#2520000
b101 3
b101 '
b101 )
10
1$
#2540000
0$
#2560000
b110 3
b110 '
b110 )
1$
#2580000
0$
#2600000
b0 #
b0 -
02
0.
07
b111 3
b111 '
b111 )
1$
#2620000
0$
#2640000
00
1$
#2660000
0$
#2680000
b1 #
b1 -
12
1.
17
14
b0 3
b1000 '
b1000 )
b10001 (
b10001 *
b10001 5
1$
#2700000
0$
#2720000
04
b0 '
b0 )
b10001 6
10
1$
#2740000
0$
#2760000
1$
#2780000
0$
#2800000
b0 #
b0 -
02
0.
07
b1 3
b1 '
b1 )
1$
#2820000
0$
#2840000
b10 3
b10 '
b10 )
00
1$
#2860000
0$
#2880000
b11 3
b11 '
b11 )
1$
#2900000
0$
#2920000
b1 #
b1 -
12
1.
17
b100 3
b100 '
b100 )
1$
#2940000
0$
#2960000
b0 #
b0 -
02
0.
07
b101 3
b101 '
b101 )
10
1$
#2980000
0$
#3000000
b110 3
b110 '
b110 )
00
1$
#3020000
0$
#3040000
b111 3
b111 '
b111 )
1$
#3060000
0$
#3080000
1$
#3100000
0$
#3120000
b1 #
b1 -
12
1.
17
14
b0 3
b1000 '
b1000 )
b1111111 (
b1111111 *
b1111111 5
1$
#3140000
0$
#3160000
04
b0 '
b0 )
10
b1111111 6
1$
#3180000
0$
#3200000
1$
#3220000
0$
#3240000
b1 3
b1 '
b1 )
1$
#3260000
0$
#3280000
b10 3
b10 '
b10 )
1$
#3300000
0$
#3320000
b11 3
b11 '
b11 )
1$
#3340000
0$
#3360000
b100 3
b100 '
b100 )
1$
#3380000
0$
#3400000
b101 3
b101 '
b101 )
1$
#3420000
0$
#3440000
b110 3
b110 '
b110 )
1$
#3460000
0$
#3480000
b0 #
b0 -
02
0.
07
b111 3
b111 '
b111 )
1$
#3500000
0$
#3520000
00
1$
#3540000
0$
#3560000
b1 #
b1 -
12
1.
17
14
b0 3
b1000 '
b1000 )
b1 (
b1 *
b1 5
1$
#3580000
0$
#3600000
04
b0 '
b0 )
b1 6
10
1$
#3620000
0$
#3640000
1$
#3660000
0$
#3680000
b0 #
b0 -
02
0.
07
b1 3
b1 '
b1 )
1$
#3700000
0$
#3720000
b10 3
b10 '
b10 )
00
1$
#3740000
0$
#3760000
b11 3
b11 '
b11 )
1$
#3780000
0$
#3800000
b100 3
b100 '
b100 )
1$
#3820000
0$
#3840000
b101 3
b101 '
b101 )
1$
#3860000
0$
#3880000
b110 3
b110 '
b110 )
1$
#3900000
0$
#3920000
b111 3
b111 '
b111 )
1$
#3940000
0$
#3960000
1$
#3980000
0$
#4000000
b1 #
b1 -
12
1.
17
14
b0 3
b1000 '
b1000 )
b11101000 (
b11101000 *
b11101000 5
1$
#4020000
0$
#4040000
04
b0 '
b0 )
b0 #
b0 -
02
0.
07
10
b11101000 6
1$
#4060000
0$
#4080000
00
1$
#4100000
0$
#4120000
b1 3
b1 '
b1 )
1$
#4140000
0$
#4160000
b10 3
b10 '
b10 )
1$
#4180000
0$
#4200000
b1 #
b1 -
12
1.
17
b11 3
b11 '
b11 )
1$
#4220000
0$
#4240000
b0 #
b0 -
02
0.
07
b100 3
b100 '
b100 )
10
1$
#4260000
0$
#4280000
b1 #
b1 -
12
1.
17
b101 3
b101 '
b101 )
00
1$
#4300000
0$
#4320000
b110 3
b110 '
b110 )
10
1$
#4340000
0$
#4360000
b111 3
b111 '
b111 )
1$
#4380000
0$
#4400000
1$
#4420000
0$
#4440000
b0 #
b0 -
02
0.
07
14
b0 3
b1000 '
b1000 )
b1101001 (
b1101001 *
b1101001 5
1$
#4460000
0$
#4480000
04
b0 '
b0 )
b1 #
b1 -
12
1.
17
b1101001 6
00
1$
#4500000
0$
#4520000
10
1$
#4540000
0$
#4560000
b0 #
b0 -
02
0.
07
b1 3
b1 '
b1 )
1$
#4580000
0$
#4600000
b10 3
b10 '
b10 )
00
1$
#4620000
0$
#4640000
b1 #
b1 -
12
1.
17
b11 3
b11 '
b11 )
1$
#4660000
0$
#4680000
b0 #
b0 -
02
0.
07
b100 3
b100 '
b100 )
10
1$
#4700000
0$
#4720000
b1 #
b1 -
12
1.
17
b101 3
b101 '
b101 )
00
1$
#4740000
0$
#4760000
b110 3
b110 '
b110 )
10
1$
#4780000
0$
#4800000
b0 #
b0 -
02
0.
07
b111 3
b111 '
b111 )
1$
#4820000
0$
#4840000
00
1$
#4860000
0$
#4880000
b1 #
b1 -
12
1.
17
14
b0 3
b1000 '
b1000 )
b10110 (
b10110 *
b10110 5
1$
#4900000
0$
#4920000
04
b0 '
b0 )
b0 #
b0 -
02
0.
07
10
b10110 6
1$
#4940000
0$
#4960000
00
1$
#4980000
0$
#5000000
b1 #
b1 -
12
1.
17
b1 3
b1 '
b1 )
0$
#5020000
b10 3
b10 '
b10 )
10
1$
#5040000
0$
#5060000
b0 #
b0 -
02
0.
07
b11 3
b11 '
b11 )
1$
#5080000
0$
#5100000
b1 #
b1 -
12
1.
17
b100 3
b100 '
b100 )
00
1$
#5120000
0$
#5140000
b0 #
b0 -
02
0.
07
b101 3
b101 '
b101 )
10
1$
#5160000
0$
#5180000
b110 3
b110 '
b110 )
00
1$
#5200000
0$
#5220000
b111 3
b111 '
b111 )
1$
#5240000
0$
#5260000
1$
#5280000
0$
#5300000
14
b0 3
b11000 '
b11000 )
b1010101 (
b1010101 *
b1010101 5
1$
#5320000
0$
#5340000
04
b10000 '
b10000 )
1.
17
b1010101 6
11
1$
#5360000
0$
#5380000
b1 #
b1 -
12
10
1$
#5400000
0$
#5420000
1$
#5440000
0$
#5460000
0.
07
b1 3
b10001 '
b10001 )
1$
#5480000
0$
#5500000
b0 #
b0 -
02
00
1$
#5520000
0$
#5540000
1.
17
b10 3
b10010 '
b10010 )
1$
#5560000
0$
#5580000
b1 #
b1 -
12
10
1$
#5600000
0$
#5620000
0.
07
b11 3
b10011 '
b10011 )
1$
#5640000
0$
#5660000
b0 #
b0 -
02
00
1$
#5680000
0$
#5700000
1.
17
b100 3
b10100 '
b10100 )
1$
#5720000
0$
#5740000
b1 #
b1 -
12
10
1$
#5760000
0$
#5780000
0.
07
b101 3
b10101 '
b10101 )
1$
#5800000
0$
#5820000
b0 #
b0 -
02
00
1$
#5840000
0$
#5860000
1.
17
b110 3
b10110 '
b10110 )
1$
#5880000
0$
#5900000
b1 #
b1 -
12
10
1$
#5920000
0$
#5940000
0.
07
b111 3
b10111 '
b10111 )
1$
#5960000
0$
#5980000
b0 #
b0 -
02
00
1$
#6000000
0$
#6020000
1$
#6040000
0$
#6060000
1.
17
14
b0 3
b11000 '
b11000 )
b10001000 (
b10001000 *
b10001000 5
1$
#6080000
0$
#6100000
04
b10000 '
b10000 )
b1 #
b1 -
12
0.
07
10
b10001000 6
1$
#6120000
0$
#6140000
b0 #
b0 -
02
00
1$
#6160000
0$
#6180000
1$
#6200000
0$
#6220000
b1 3
b10001 '
b10001 )
1$
#6240000
0$
#6260000
1$
#6280000
0$
#6300000
b10 3
b10010 '
b10010 )
1$
#6320000
0$
#6340000
1$
#6360000
0$
#6380000
1.
17
b11 3
b10011 '
b10011 )
1$
#6400000
0$
#6420000
b1 #
b1 -
12
10
1$
#6440000
0$
#6460000
0.
07
b100 3
b10100 '
b10100 )
1$
#6480000
0$
#6500000
b0 #
b0 -
02
00
1$
#6520000
0$
#6540000
b101 3
b10101 '
b10101 )
1$
#6560000
0$
#6580000
1$
#6600000
0$
#6620000
b110 3
b10110 '
b10110 )
1$
#6640000
0$
#6660000
1$
#6680000
0$
#6700000
1.
17
b111 3
b10111 '
b10111 )
1$
#6720000
0$
#6740000
b1 #
b1 -
12
10
1$
#6760000
0$
#6780000
1$
#6800000
0$
#6820000
1$
#6840000
0$
#6860000
0.
07
14
b0 3
b11000 '
b11000 )
b11101110 (
b11101110 *
b11101110 5
1$
#6880000
0$
#6900000
04
b10000 '
b10000 )
b0 #
b0 -
02
00
b11101110 6
1$
#6920000
0$
#6940000
1$
#6960000
0$
#6980000
1$
#7000000
0$
#7020000
1.
17
b1 3
b10001 '
b10001 )
1$
#7040000
0$
#7060000
b1 #
b1 -
12
10
1$
#7080000
0$
#7100000
b10 3
b10010 '
b10010 )
1$
#7120000
0$
#7140000
1$
#7160000
0$
#7180000
b11 3
b10011 '
b10011 )
1$
#7200000
0$
#7220000
1$
#7240000
0$
#7260000
0.
07
b100 3
b10100 '
b10100 )
1$
#7280000
0$
#7300000
b0 #
b0 -
02
00
1$
#7320000
0$
#7340000
1.
17
b101 3
b10101 '
b10101 )
1$
#7360000
0$
#7380000
b1 #
b1 -
12
10
1$
#7400000
0$
#7420000
b110 3
b10110 '
b10110 )
1$
#7440000
0$
#7460000
1$
#7480000
0$
#7500000
b111 3
b10111 '
b10111 )
1$
#7520000
0$
#7540000
1$
#7560000
0$
#7580000
1$
#7600000
0$
#7620000
1$
#7640000
0$
#7660000
0.
07
14
b0 3
b11000 '
b11000 )
b1100110 (
b1100110 *
b1100110 5
1$
#7680000
0$
#7700000
04
b10000 '
b10000 )
b0 #
b0 -
02
00
b1100110 6
1$
#7720000
0$
#7740000
1$
#7760000
0$
#7780000
1$
#7800000
0$
#7820000
1.
17
b1 3
b10001 '
b10001 )
1$
#7840000
0$
#7860000
b1 #
b1 -
12
10
1$
#7880000
0$
#7900000
b10 3
b10010 '
b10010 )
1$
#7920000
0$
#7940000
1$
#7960000
0$
#7980000
0.
07
b11 3
b10011 '
b10011 )
1$
#8000000
0$
#8020000
b0 #
b0 -
02
00
1$
#8040000
0$
#8060000
b100 3
b10100 '
b10100 )
1$
#8080000
0$
#8100000
1$
#8120000
0$
#8140000
1.
17
b101 3
b10101 '
b10101 )
1$
#8160000
0$
#8180000
b1 #
b1 -
12
10
1$
#8200000
0$
#8220000
b110 3
b10110 '
b10110 )
1$
#8240000
0$
#8260000
1$
#8280000
0$
#8300000
0.
07
b111 3
b10111 '
b10111 )
1$
#8320000
0$
#8340000
b0 #
b0 -
02
00
1$
#8360000
0$
#8380000
1$
#8400000
0$
#8420000
1$
#8440000
0$
#8460000
14
b0 3
b11000 '
b11000 )
b1110111 (
b1110111 *
b1110111 5
1$
#8480000
0$
#8500000
04
b10000 '
b10000 )
1.
17
b1110111 6
1$
#8520000
0$
#8540000
b1 #
b1 -
12
10
1$
#8560000
0$
#8580000
1$
#8600000
0$
#8620000
b1 3
b10001 '
b10001 )
1$
#8640000
0$
#8660000
1$
#8680000
0$
#8700000
b10 3
b10010 '
b10010 )
1$
#8720000
0$
#8740000
1$
#8760000
0$
#8780000
0.
07
b11 3
b10011 '
b10011 )
1$
#8800000
0$
#8820000
b0 #
b0 -
02
00
1$
#8840000
0$
#8860000
1.
17
b100 3
b10100 '
b10100 )
1$
#8880000
0$
#8900000
b1 #
b1 -
12
10
1$
#8920000
0$
#8940000
b101 3
b10101 '
b10101 )
1$
#8960000
0$
#8980000
1$
#9000000
0$
#9020000
b110 3
b10110 '
b10110 )
1$
#9040000
0$
#9060000
1$
#9080000
0$
#9100000
0.
07
b111 3
b10111 '
b10111 )
1$
#9120000
0$
#9140000
b0 #
b0 -
02
00
1$
#9160000
0$
#9180000
1$
#9200000
0$
#9220000
1.
17
14
b0 3
b11000 '
b11000 )
b10001 (
b10001 *
b10001 5
1$
#9240000
0$
#9260000
04
b10000 '
b10000 )
b1 #
b1 -
12
b10001 6
10
1$
#9280000
0$
#9300000
1$
#9320000
0$
#9340000
1$
#9360000
0$
#9380000
0.
07
b1 3
b10001 '
b10001 )
1$
#9400000
0$
#9420000
b0 #
b0 -
02
00
1$
#9440000
0$
#9460000
b10 3
b10010 '
b10010 )
1$
#9480000
0$
#9500000
1$
#9520000
0$
#9540000
b11 3
b10011 '
b10011 )
1$
#9560000
0$
#9580000
1$
#9600000
0$
#9620000
1.
17
b100 3
b10100 '
b10100 )
1$
#9640000
0$
#9660000
b1 #
b1 -
12
10
1$
#9680000
0$
#9700000
0.
07
b101 3
b10101 '
b10101 )
1$
#9720000
0$
#9740000
b0 #
b0 -
02
00
1$
#9760000
0$
#9780000
b110 3
b10110 '
b10110 )
1$
#9800000
0$
#9820000
1$
#9840000
0$
#9860000
b111 3
b10111 '
b10111 )
1$
#9880000
0$
#9900000
1$
#9920000
0$
#9940000
1$
#9960000
0$
#9980000
1.
17
14
b0 3
b11000 '
b11000 )
b1111111 (
b1111111 *
b1111111 5
1$
#10000000
04
b10000 '
b10000 )
b1 #
b1 -
12
10
b1111111 6
1$
#10020000
0$
#10040000
1$
#10060000
0$
#10080000
1$
#10100000
0$
#10120000
b1 3
b10001 '
b10001 )
1$
#10140000
0$
#10160000
1$
#10180000
0$
#10200000
b10 3
b10010 '
b10010 )
1$
#10220000
0$
#10240000
1$
#10260000
0$
#10280000
b11 3
b10011 '
b10011 )
1$
#10300000
0$
#10320000
1$
#10340000
0$
#10360000
b100 3
b10100 '
b10100 )
1$
#10380000
0$
#10400000
1$
#10420000
0$
#10440000
b101 3
b10101 '
b10101 )
1$
#10460000
0$
#10480000
1$
#10500000
0$
#10520000
b110 3
b10110 '
b10110 )
1$
#10540000
0$
#10560000
1$
#10580000
0$
#10600000
0.
07
b111 3
b10111 '
b10111 )
1$
#10620000
0$
#10640000
b0 #
b0 -
02
00
1$
#10660000
0$
#10680000
1$
#10700000
0$
#10720000
1.
17
14
b0 3
b11000 '
b11000 )
b1 (
b1 *
b1 5
1$
#10740000
0$
#10760000
04
b10000 '
b10000 )
b1 #
b1 -
12
b1 6
10
1$
#10780000
0$
#10800000
1$
#10820000
0$
#10840000
1$
#10860000
0$
#10880000
0.
07
b1 3
b10001 '
b10001 )
1$
#10900000
0$
#10920000
b0 #
b0 -
02
00
1$
#10940000
0$
#10960000
b10 3
b10010 '
b10010 )
1$
#10980000
0$
#11000000
1$
#11020000
0$
#11040000
b11 3
b10011 '
b10011 )
1$
#11060000
0$
#11080000
1$
#11100000
0$
#11120000
b100 3
b10100 '
b10100 )
1$
#11140000
0$
#11160000
1$
#11180000
0$
#11200000
b101 3
b10101 '
b10101 )
1$
#11220000
0$
#11240000
1$
#11260000
0$
#11280000
b110 3
b10110 '
b10110 )
1$
#11300000
0$
#11320000
1$
#11340000
0$
#11360000
b111 3
b10111 '
b10111 )
1$
#11380000
0$
#11400000
1$
#11420000
0$
#11440000
1$
#11460000
0$
#11480000
1.
17
14
b0 3
b11000 '
b11000 )
b11101000 (
b11101000 *
b11101000 5
1$
#11500000
0$
#11520000
04
b10000 '
b10000 )
b1 #
b1 -
12
0.
07
10
b11101000 6
1$
#11540000
0$
#11560000
b0 #
b0 -
02
00
1$
#11580000
0$
#11600000
1$
#11620000
0$
#11640000
b1 3
b10001 '
b10001 )
1$
#11660000
0$
#11680000
1$
#11700000
0$
#11720000
b10 3
b10010 '
b10010 )
1$
#11740000
0$
#11760000
1$
#11780000
0$
#11800000
1.
17
b11 3
b10011 '
b10011 )
1$
#11820000
0$
#11840000
b1 #
b1 -
12
10
1$
#11860000
0$
#11880000
0.
07
b100 3
b10100 '
b10100 )
1$
#11900000
0$
#11920000
b0 #
b0 -
02
00
1$
#11940000
0$
#11960000
1.
17
b101 3
b10101 '
b10101 )
1$
#11980000
0$
#12000000
b1 #
b1 -
12
10
1$
#12020000
0$
#12040000
b110 3
b10110 '
b10110 )
1$
#12060000
0$
#12080000
1$
#12100000
0$
#12120000
b111 3
b10111 '
b10111 )
1$
#12140000
0$
#12160000
1$
#12180000
0$
#12200000
1$
#12220000
0$
#12240000
0.
07
14
b0 3
b11000 '
b11000 )
b1101001 (
b1101001 *
b1101001 5
1$
#12260000
0$
#12280000
04
b10000 '
b10000 )
1.
17
b0 #
b0 -
02
b1101001 6
00
1$
#12300000
0$
#12320000
b1 #
b1 -
12
10
1$
#12340000
0$
#12360000
1$
#12380000
0$
#12400000
0.
07
b1 3
b10001 '
b10001 )
1$
#12420000
0$
#12440000
b0 #
b0 -
02
00
1$
#12460000
0$
#12480000
b10 3
b10010 '
b10010 )
1$
#12500000
0$
#12520000
1$
#12540000
0$
#12560000
1.
17
b11 3
b10011 '
b10011 )
1$
#12580000
0$
#12600000
b1 #
b1 -
12
10
1$
#12620000
0$
#12640000
0.
07
b100 3
b10100 '
b10100 )
1$
#12660000
0$
#12680000
b0 #
b0 -
02
00
1$
#12700000
0$
#12720000
1.
17
b101 3
b10101 '
b10101 )
1$
#12740000
0$
#12760000
b1 #
b1 -
12
10
1$
#12780000
0$
#12800000
b110 3
b10110 '
b10110 )
1$
#12820000
0$
#12840000
1$
#12860000
0$
#12880000
0.
07
b111 3
b10111 '
b10111 )
1$
#12900000
0$
#12920000
b0 #
b0 -
02
00
1$
#12940000
0$
#12960000
1$
#12980000
0$
#13000000
1.
17
14
b0 3
b11000 '
b11000 )
b10110 (
b10110 *
b10110 5
1$
#13020000
0$
#13040000
04
b10000 '
b10000 )
b1 #
b1 -
12
0.
07
10
b10110 6
1$
#13060000
0$
#13080000
b0 #
b0 -
02
00
1$
#13100000
0$
#13120000
1$
#13140000
0$
#13160000
1.
17
b1 3
b10001 '
b10001 )
1$
#13180000
0$
#13200000
b1 #
b1 -
12
10
1$
#13220000
0$
#13240000
b10 3
b10010 '
b10010 )
1$
#13260000
0$
#13280000
1$
#13300000
0$
#13320000
0.
07
b11 3
b10011 '
b10011 )
1$
#13340000
0$
#13360000
b0 #
b0 -
02
00
1$
#13380000
0$
#13400000
1.
17
b100 3
b10100 '
b10100 )
1$
#13420000
0$
#13440000
b1 #
b1 -
12
10
1$
#13460000
0$
#13480000
0.
07
b101 3
b10101 '
b10101 )
1$
#13500000
0$
#13520000
b0 #
b0 -
02
00
1$
#13540000
0$
#13560000
b110 3
b10110 '
b10110 )
1$
#13580000
0$
#13600000
1$
#13620000
0$
#13640000
b111 3
b10111 '
b10111 )
1$
